<svg width="607" height="503" viewBox="0 0 607 503" fill="none" xmlns="http://www.w3.org/2000/svg">
<g clip-path="url(#clip0_295_98)">
<path d="M291.76 319.83C291.76 319.83 292.21 302.78 273.23 280.71C264.12 270.11 257.58 256.36 258.18 238.87C258.18 238.87 257.56 163.51 321.1 152.48C321.1 152.48 382.77 139.61 394.61 191.69C394.61 191.69 397.72 203.94 397.1 227.23C397.1 227.23 395.85 268.89 435.72 283.6C435.72 283.6 445.69 292.18 477.46 289.73C477.46 289.73 519.82 285.44 519.82 333.84C519.82 333.84 520.44 362.64 544.74 371.21C544.74 371.21 575.27 376.72 568.41 409.81C568.41 409.81 580.28 425.79 544.77 455.13L374.32 460.72L276.31 445.35L215.23 432.78L291.76 319.83Z" fill="black"/>
<path d="M255.92 299.09L287.48 244.15C287.48 244.15 275.79 242.4 283.97 229.54C292.15 216.68 296.83 219.6 297.41 224.86L296.56 230.93L312.66 209.94C312.66 209.94 330.49 178.31 353.78 186.07C353.78 186.07 387.42 201.6 380.23 229.49L362.11 262.56C362.11 262.56 339.97 298.5 322.72 301.38C322.72 301.38 314.96 304.26 311.51 300.8C311.51 300.8 314.67 301.95 312.95 306.55L307.77 321.79C307.78 321.79 276.24 328.72 255.92 299.09Z" fill="white"/>
<path d="M316.72 201.04C316.72 201.04 319.63 227.45 332.65 233.47C332.65 233.47 342.94 241.04 369.94 240.85C369.94 240.85 369.55 247.65 369.16 255.42C369.16 255.42 369.35 262.99 375.57 262.99L381.01 260.27C381.01 260.27 396.63 252.47 396.44 224.31C396.44 224.31 387.31 175.77 370.45 163.13C370.45 163.13 364.49 138.22 307.89 179.27C284.43 196.28 300.16 205.97 300.16 205.97L307.89 214.75L316.72 201.04Z" fill="black"/>
<path d="M261.15 277.36C261.15 277.36 270.24 311.45 315.69 305.77C315.69 305.77 338.41 381.9 327.05 436.44L269.1 463.71C269.1 463.71 240.69 372.81 249.78 302.37L261.15 277.36Z" fill="#4126CF"/>
<path d="M312.3 299.24C312.3 299.24 316 309.71 360.67 315.58C360.67 315.58 394.58 321.57 400.46 377.99L408.69 481.43L328.39 483.06C328.39 483.06 325.59 423.15 322.06 390.23C322.06 390.23 315.8 312.27 312.3 299.24Z" fill="white"/>
<path d="M260.97 277.31C260.97 277.31 252.62 276.77 208.22 289.95C208.22 289.95 124.92 309.16 128.38 385.13L136.83 483.91L265.7 470.24C265.7 470.24 250.65 362.16 254.09 323.17L260.97 277.31Z" fill="white"/>
<path d="M258.65 277.09C258.65 277.09 219.18 285.22 192.32 295.63C192.32 295.63 146.67 309.88 132.03 357.45C127.65 375.57 129 388.02 137.07 481.81" stroke="black" stroke-miterlimit="10"/>
<path d="M261.15 277.36C261.15 277.36 226.31 323.93 215.46 346.88C215.46 346.88 214.63 347.8 236.63 347.93L246.34 347.96L213.56 383.81C213.56 383.81 209.39 385.23 212.31 386.35L255.67 387.52" stroke="black" stroke-miterlimit="10"/>
<path d="M314.29 303.38C314.29 303.38 345.23 341.13 354.82 369.08C354.82 369.08 353.93 370.34 335.24 366.95L329.12 365.89L356.66 409.83C356.66 409.83 362.02 415.44 359.52 416.56L324.17 417.68" stroke="black" stroke-miterlimit="10"/>
<path d="M261.27 278L268.79 312.35C268.79 312.35 268.43 314.71 270.99 312.72L285.53 305.88L289.81 318.71C289.81 318.71 290.38 320.59 291.76 319.83C291.76 319.83 305.86 314.16 312.44 308.03" stroke="black" stroke-miterlimit="10"/>
<path d="M293.01 287.83C293.01 287.83 302.61 304.55 319.57 303.17" stroke="black" stroke-miterlimit="10"/>
<path d="M333.828 259.765C339.662 250.588 337.923 239.036 329.944 233.964C321.965 228.891 310.767 232.218 304.933 241.395C299.099 250.572 300.838 262.124 308.817 267.197C316.796 272.269 327.994 268.942 333.828 259.765Z" stroke="#F29F74" stroke-width="2" stroke-miterlimit="10"/>
<path d="M367.917 273.081C373.292 264.627 371.592 253.923 364.121 249.173C356.65 244.423 346.236 247.427 340.861 255.881C335.487 264.336 337.186 275.04 344.657 279.79C352.128 284.539 362.542 281.536 367.917 273.081Z" stroke="#F29F74" stroke-width="2" stroke-miterlimit="10"/>
<path d="M333.82 259.76L337.23 261.55" stroke="#F29F74" stroke-width="2" stroke-miterlimit="10"/>
<path d="M214.67 436.33L315.85 393.4C315.85 393.4 337.21 375.32 351.18 405.09L360.12 424.46C360.12 424.46 358.71 431.05 352.66 428.8C347.17 439.06 341.71 435.33 341.71 435.33L326 442.27L312.12 450.84L318.92 483.66C318.92 483.66 225.12 482.76 135.91 484.53C142.83 482.26 136.01 484.03 136.01 484.03L214.67 436.33Z" fill="white"/>
<path d="M218.95 438.11C264.39 413.39 279.1 409.47 302.99 398.76L321.92 390.86C321.92 390.86 336.21 383.72 345.27 395.53L357.91 419.16" stroke="black" stroke-miterlimit="10"/>
<path d="M335.66 403.5L351.6 427.68C351.6 427.68 357.92 433.18 358.74 424.66" stroke="black" stroke-miterlimit="10"/>
<path d="M327.41 412.56C327.41 412.56 340.32 438.11 344.44 435.91C344.44 435.91 349.11 435.91 348.29 431.24" stroke="black" stroke-miterlimit="10"/>
<path d="M297.16 458.42C297.16 458.42 305.2 476.26 318.93 483.66C318.93 483.66 325.59 480.18 324.53 467.25C324.53 467.25 324.13 458.85 312.12 450.84L297.16 458.42Z" fill="black"/>
<path d="M311.73 451.7C311.73 451.7 321.13 445.11 326.01 442.27" stroke="black" stroke-miterlimit="10"/>
<path d="M280.96 407.99C280.96 407.99 300.21 478.59 318.93 483.66C318.93 483.66 299 474.65 285.73 438.68L276.33 409.39L280.96 407.99Z" fill="black"/>
<path d="M473.88 446.4H328.76C328.76 446.4 315.94 445.92 316.88 450.96L335.76 493.75L496.66 492.03L473.88 446.4Z" fill="white" stroke="black" stroke-miterlimit="10"/>
<path d="M343.86 476.09L378.53 385.3C378.53 385.3 379.75 371.04 394.1 373.81L521.16 375.2C521.16 375.2 531.41 373.12 528.67 385.59L499.55 492.24L336.01 494.38L343.86 476.09Z" fill="white" stroke="black" stroke-miterlimit="10"/>
<path d="M316.27 449.9C316.27 449.9 313.57 453.33 312.34 458.73L328.29 498.72C328.29 498.72 329.55 502.21 332.77 502.21C335.99 502.21 497.42 498.98 497.42 498.98L499.13 492.23L336.92 494.37L316.27 449.9Z" fill="#4126CF"/>
<path d="M215.15 419.74C215.15 419.74 221.33 440.77 217.62 453.13" stroke="black" stroke-miterlimit="10"/>
<path d="M38.91 485.06L318.93 483.66" stroke="black" stroke-width="3" stroke-miterlimit="10"/>
<path d="M502 482.43L601.34 481.03" stroke="black" stroke-width="3" stroke-miterlimit="10"/>
<path d="M153.75 231.68C153.75 231.68 161.79 183.43 138.67 163.33L199.99 146.24C199.99 146.24 222.1 181.42 208.03 219.62L153.75 231.68Z" fill="white" stroke="black" stroke-miterlimit="10"/>
<path d="M134.14 172.88C134.14 172.88 153.24 204.04 138.16 243.24L195.46 227.16C195.46 227.16 208.53 180.92 192.44 155.79L134.14 172.88Z" fill="black"/>
<path d="M264.66 84.7101C264.66 84.7101 280.6 53.89 318.99 48.9201C324.51 48.2101 330.5 48.0301 336.97 48.5501L375.91 93.0501C375.91 93.0501 318.9 87.4901 309.16 123.64L264.66 84.7101Z" fill="white" stroke="black" stroke-miterlimit="10"/>
<path d="M334.1 54.1201L359.76 83.9701" stroke="black" stroke-miterlimit="10"/>
<path d="M325.87 53.4297L351.53 83.2697" stroke="black" stroke-miterlimit="10"/>
<path d="M317.79 53.71L343.45 83.55" stroke="black" stroke-miterlimit="10"/>
<path d="M498.77 165.83L572.89 161.74C572.89 161.74 571.53 218.11 605.39 239.02L521.63 244.13C521.63 244.14 483.06 210.64 498.77 165.83Z" fill="white" stroke="black" stroke-miterlimit="10"/>
<path d="M406.11 54.8901C406.11 54.8901 420.32 32.8901 425.7 46.8301C425.7 46.8301 440.08 102.39 473.41 104.35C473.41 104.35 490.4 108.93 483.21 91.9301L535.39 75.5801C526.86 77.1001 517.2 74.9401 517.2 74.9401C498.76 69.9501 480.6 29.8401 480.6 29.8401C477.35 22.8901 465.57 27.2301 465.57 27.2301L418.66 42.7401" stroke="black" stroke-miterlimit="10"/>
<path d="M481.62 104.88L536 87.2101C541.08 83.5901 535.32 74.8301 535.32 74.8301L483.22 91.9301C483.22 91.9301 488.79 100.97 481.62 104.88Z" fill="black"/>
<path d="M406.77 55.2702C406.77 55.2702 419.61 50.2702 427.8 54.9302L426.27 48.7202C426.27 48.7202 425.3 41.4602 420.34 42.5402C415.38 43.6202 411.67 48.2902 411.67 48.2902L406.77 55.2702Z" fill="black"/>
<path d="M112.23 53.8405L164.1 0.730469C164.1 0.730469 201.19 43.2005 240.28 35.7305L182 96.1005C181.99 96.1105 130.93 97.4805 112.23 53.8405Z" fill="white" stroke="black" stroke-miterlimit="10"/>
<path d="M20.4 262.69C20.4 262.69 0.510011 245.64 15.05 242.19C15.05 242.19 72.04 235.42 78.47 202.66C78.47 202.66 85.29 186.44 67.48 191.27L58.31 137.37C58.67 146.03 55.22 155.31 55.22 155.31C47.8 172.91 5.60001 185.51 5.60001 185.51C-1.72999 187.79 0.99001 200.05 0.99001 200.05L10.04 248.62" stroke="black" stroke-miterlimit="10"/>
<path d="M80.1 194.59L69.91 138.33C67.01 132.81 57.55 137.34 57.55 137.34L67.48 191.27C67.49 191.27 77.19 186.97 80.1 194.59Z" fill="black"/>
<path d="M20.87 262.09C20.87 262.09 17.65 248.69 23.37 241.21L17 241.89C17 241.89 9.67 241.87 10.08 246.94C10.49 252.01 14.61 256.31 14.61 256.31L20.87 262.09Z" fill="black"/>
<path d="M318.65 417.7C318.65 417.7 331.56 443.25 335.68 441.05C335.68 441.05 340.35 441.05 339.53 436.38" stroke="black" stroke-miterlimit="10"/>
</g>
<defs>
<clipPath id="clip0_295_98">
<rect width="606.99" height="502.21" fill="white"/>
</clipPath>
</defs>
</svg>
