<svg width="76" height="76" viewBox="0 0 76 76" fill="none" xmlns="http://www.w3.org/2000/svg">
<path fill-rule="evenodd" clip-rule="evenodd" d="M38.0629 12.6294C40.7063 12.6294 43.3496 12.9231 45.8462 13.8042L40.8531 18.6504L51.4266 19.8252L62 21L60.8252 10.4266L59.5035 0L55.2448 4.40559C49.958 1.76224 44.2308 0.293706 38.0629 0.293706C31.4545 0.293706 25.4336 2.05594 20 4.84615L29.2517 14.2448C31.8951 13.0699 34.979 12.6294 38.0629 12.6294Z" fill="#4126CF"/>
<path fill-rule="evenodd" clip-rule="evenodd" d="M12.3378 37.7195C12.3378 33.9439 13.2297 30.4587 14.7162 27.1188L19.7703 31.9109L20.8108 21.4554L22 11L11.4459 12.3069L0.743243 13.3234L5.5 18.1155C1.93243 23.9241 0 30.4587 0 37.7195C0 43.9637 1.48649 49.9175 4.31081 55L13.8243 45.7063C12.9324 43.2376 12.3378 40.4785 12.3378 37.7195Z" fill="#F89944"/>
<path fill-rule="evenodd" clip-rule="evenodd" d="M71.4792 55.9003C74.25 50.5756 76 44.3633 76 37.8553C76 30.3119 73.6667 23.0643 70.0208 17L61.125 26.0225C62.875 29.5723 63.75 33.5659 63.75 37.7074C63.75 40.8135 63.3125 43.7717 62.2917 46.4341L57.4792 41.5531L56.1667 52.3505L55 63L65.5 61.8167L76 60.6334L71.4792 55.9003Z" fill="#F89944"/>
<path fill-rule="evenodd" clip-rule="evenodd" d="M38.0367 63.5333C33.9266 63.5333 29.9633 62.5067 26.4404 60.8933L31.1376 56.2L20.5688 55.0267L10 54L11.1743 64.4133L12.3486 74.9733L17.3394 69.9867C23.3578 73.8 30.2569 76 37.8899 76C45.2294 76 52.2752 73.8 58 70.1333L48.8991 61.1867C45.6697 62.6533 42 63.5333 38.0367 63.5333Z" fill="#4126CF"/>
</svg>
